{
    "app-id" : "org.gnome.Crosswords.Editor.Devel",
    "runtime" : "org.gnome.Platform",
    "runtime-version" : "47",
    "sdk" : "org.gnome.Sdk",
    "sdk-extensions" : [
        "org.freedesktop.Sdk.Extension.rust-stable"
    ],
    "command" : "crossword-editor",
    "finish-args" : [
        "--device=dri",
        "--share=network",
        "--share=ipc",
        "--socket=fallback-x11",
        "--socket=wayland",
        "--env=PUZZLE_SET_PATH=/app/extensions/puzzle-sets"
    ],
    "build-options" : {
        "append-path" : "/usr/lib/sdk/rust-stable/bin",
        "env" : {
            "G_MESSAGES_DEBUG" : "none",
            "RUSTFLAGS": "-C force-frame-pointers=yes",
            "RUST_BACKTRACE" : "1"
        }
    },
    "cleanup" : [
        "/bin/crosswords",
        "/include",
        "/lib/girepository-1.0",
        "/lib/pkgconfig",
        "/man",
        "/libexec/installed-tests",
        "/share/applications/org.gnome.Adwaita1.Demo.desktop",
        "/share/applications/org.gnome.Crosswords.Devel.desktop",
        "/share/metainfo/org.gnome.Adwaita1.Demo.metainfo.xml",
        "/share/metainfo/org.gnome.Crosswords.metainfo.xml",
        "/share/icons/hicolor/symbolic/apps/org.gnome.Adwaita1.Demo-symbolic.svg",
        "/share/icons/hicolor/scalable/apps/org.gnome.Adwaita1.Demo.svg",
        "/share/doc",
        "/share/gtk-doc",
        "/share/man",
        "/share/pkgconfig",
        "/share/crosswords/word-lists/player.gresource",
        "*.la",
        "*.a"
    ],
    "modules" : [
        {
            "name" : "libipuz",
            "buildsystem" : "meson",
            "config-opts": ["-Dbuildtype=release", "-Dsandboxed=true"],
            "sources" : [
                "cargo-sources.json",
                {
                    "type" : "git",
                    "url" : "https://gitlab.gnome.org/jrb/libipuz.git",
                    "branch" : "master"
                }
            ]
        },
        "python3-requirements.json",
        {
            "name" : "libsass",
            "buildsystem" : "meson",
            "sources" : [
                {
                    "type" : "git",
                    "url" : "https://github.com/lazka/libsass.git",
                    "branch" : "meson"
                }
            ]
        },
        {
            "name" : "sassc",
            "buildsystem" : "meson",
            "sources" : [
                {
                    "type" : "git",
                    "url" : "https://github.com/lazka/sassc.git",
                    "branch" : "meson"
                }
            ]
        },
        {
            "name" : "libadwaita",
            "buildsystem" : "meson",
            "sources" : [
                {
                    "type" : "git",
                    "url" : "https://gitlab.gnome.org/GNOME/libadwaita.git",
                    "branch" : "main"
                }
            ]
        },
        {
            "name" : "crosswords",
            "buildsystem" : "meson",
            "run-tests": true,
            "config-opts": ["-Ddevelopment=true"],
            "sources" : [
                {
                    "type" : "dir",
                    "path" : "./"
                }
            ]
        }
    ]
}
