<?xml version="1.0" encoding="UTF-8" standalone="no"?>
<!-- Created with Inkscape (http://www.inkscape.org/) -->

<svg
   width="16"
   height="16"
   viewBox="0 0 4.2333333 4.2333333"
   version="1.1"
   id="svg1"
   inkscape:version="1.3 (0e150ed6c4, 2023-07-21)"
   sodipodi:docname="regular.svg"
   xmlns:inkscape="http://www.inkscape.org/namespaces/inkscape"
   xmlns:sodipodi="http://sodipodi.sourceforge.net/DTD/sodipodi-0.dtd"
   xmlns="http://www.w3.org/2000/svg"
   xmlns:svg="http://www.w3.org/2000/svg">
  <sodipodi:namedview
     id="namedview1"
     pagecolor="#ffffff"
     bordercolor="#000000"
     borderopacity="0.25"
     inkscape:showpageshadow="2"
     inkscape:pageopacity="0.0"
     inkscape:pagecheckerboard="0"
     inkscape:deskcolor="#d1d1d1"
     inkscape:document-units="mm"
     inkscape:zoom="32"
     inkscape:cx="7.046875"
     inkscape:cy="2.296875"
     inkscape:window-width="1920"
     inkscape:window-height="1011"
     inkscape:window-x="0"
     inkscape:window-y="0"
     inkscape:window-maximized="1"
     inkscape:current-layer="layer1"
     showguides="true">
    <sodipodi:guide
       position="0.2871514,3.9683341"
       orientation="0,-1"
       id="guide1"
       inkscape:locked="false" />
    <sodipodi:guide
       position="0.26420787,4.2891923"
       orientation="1,0"
       id="guide2"
       inkscape:locked="false" />
    <sodipodi:guide
       position="4.1971302,0.26457638"
       orientation="0,-1"
       id="guide3"
       inkscape:locked="false" />
    <sodipodi:guide
       position="3.9692223,0.31129398"
       orientation="1,0"
       id="guide4"
       inkscape:locked="false" />
    <sodipodi:guide
       position="0.79483482,3.4384985"
       orientation="0,-1"
       id="guide5"
       inkscape:locked="false" />
    <sodipodi:guide
       position="0.79544951,4.061025"
       orientation="1,0"
       id="guide6"
       inkscape:locked="false" />
    <sodipodi:guide
       position="2.1166666,2.1786784"
       orientation="1,0"
       id="guide7"
       inkscape:locked="false" />
    <sodipodi:guide
       position="2.1928611,2.1175427"
       orientation="0,-1"
       id="guide8"
       inkscape:locked="false" />
  </sodipodi:namedview>
  <defs
     id="defs1" />
  <g
     inkscape:label="Layer 1"
     inkscape:groupmode="layer"
     id="layer1">
    <path
       id="rect4"
       style="color:#000000;fill:#000000;stroke-linecap:square;stroke-linejoin:round;-inkscape-stroke:none"
       d="M 1.1720215 0.2635498 C 0.67809671 0.2635498 0.2635498 0.67809671 0.2635498 1.1720215 L 0.2635498 3.0607951 C 0.2635498 3.5547199 0.67809659 3.96875 1.1720215 3.96875 L 3.0607951 3.96875 C 3.55472 3.96875 3.96875 3.55472 3.96875 3.0607951 L 3.96875 1.1720215 C 3.96875 0.67809659 3.5547199 0.2635498 3.0607951 0.2635498 L 1.1720215 0.2635498 z M 1.6040365 1.0583333 L 2.6292969 1.0583333 C 2.931531 1.0583333 3.175 1.3018024 3.175 1.6040365 L 3.175 2.6292969 C 3.175 2.931531 2.931531 3.175 2.6292969 3.175 L 1.6040365 3.175 C 1.3018024 3.175 1.0583333 2.931531 1.0583333 2.6292969 L 1.0583333 1.6040365 C 1.0583333 1.3018024 1.3018024 1.0583333 1.6040365 1.0583333 z " />
  </g>
</svg>
