<?xml version="1.0" encoding="UTF-8" standalone="no"?>
<!-- Created with Inkscape (http://www.inkscape.org/) -->

<svg
   width="64"
   height="64"
   viewBox="0 0 16.933333 16.933333"
   version="1.1"
   id="svg512"
   inkscape:version="1.2.2 (732a01da63, 2022-12-09, custom)"
   sodipodi:docname="icon.svg"
   inkscape:export-filename="../ef74c7dd/icon.png"
   inkscape:export-xdpi="25.4"
   inkscape:export-ydpi="25.4"
   xmlns:inkscape="http://www.inkscape.org/namespaces/inkscape"
   xmlns:sodipodi="http://sodipodi.sourceforge.net/DTD/sodipodi-0.dtd"
   xmlns="http://www.w3.org/2000/svg"
   xmlns:svg="http://www.w3.org/2000/svg">
  <sodipodi:namedview
     id="namedview514"
     pagecolor="#ffffff"
     bordercolor="#000000"
     borderopacity="0.25"
     inkscape:showpageshadow="2"
     inkscape:pageopacity="0.0"
     inkscape:pagecheckerboard="0"
     inkscape:deskcolor="#d1d1d1"
     inkscape:document-units="mm"
     showgrid="false"
     showguides="true"
     inkscape:zoom="5.7945831"
     inkscape:cx="33.134394"
     inkscape:cy="44.438054"
     inkscape:window-width="1920"
     inkscape:window-height="1009"
     inkscape:window-x="0"
     inkscape:window-y="0"
     inkscape:window-maximized="1"
     inkscape:current-layer="layer1" />
  <defs
     id="defs509" />
  <g
     inkscape:label="Layer 1"
     inkscape:groupmode="layer"
     id="layer1">
    <path
       style="fill:none;stroke:#000000;stroke-width:1.37742;stroke-linecap:round;stroke-linejoin:round;stroke-dasharray:none"
       d="M 12.737534,8.5410379 H 4.2592324"
       id="path720" />
    <rect
       style="fill:#000000;fill-opacity:1;stroke:none;stroke-width:1.92794;stroke-linecap:butt;stroke-linejoin:round;stroke-dasharray:none"
       id="rect2106"
       width="1.9867703"
       height="1.9867703"
       x="7.6008072"
       y="4.4155278" />
    <rect
       style="fill:#000000;fill-opacity:1;stroke:none;stroke-width:1.92794;stroke-linecap:butt;stroke-linejoin:round;stroke-dasharray:none"
       id="rect2106-9"
       width="1.9867703"
       height="1.9867703"
       x="7.599967"
       y="10.998123" />
    <rect
       style="fill:none;fill-opacity:1;stroke:#000000;stroke-width:1.43824;stroke-linecap:round;stroke-linejoin:round;stroke-dasharray:none;stroke-opacity:1"
       id="rect4342"
       width="12.841332"
       height="12.841332"
       x="2.0271139"
       y="2.1110888"
       ry="3.0657306" />
  </g>
</svg>
