<?xml version="1.0" encoding="UTF-8" standalone="no"?>
<!-- Created with Inkscape (http://www.inkscape.org/) -->

<svg
   width="120"
   height="120"
   viewBox="0 0 31.749999 31.749999"
   version="1.1"
   id="svg5"
   inkscape:version="1.2.2 (732a01da63, 2022-12-09, custom)"
   sodipodi:docname="mirrored.svg"
   xml:space="preserve"
   xmlns:inkscape="http://www.inkscape.org/namespaces/inkscape"
   xmlns:sodipodi="http://sodipodi.sourceforge.net/DTD/sodipodi-0.dtd"
   xmlns="http://www.w3.org/2000/svg"
   xmlns:svg="http://www.w3.org/2000/svg"><sodipodi:namedview
     id="namedview7"
     pagecolor="#ffffff"
     bordercolor="#000000"
     borderopacity="0.25"
     inkscape:showpageshadow="2"
     inkscape:pageopacity="0.0"
     inkscape:pagecheckerboard="0"
     inkscape:deskcolor="#d1d1d1"
     inkscape:document-units="mm"
     showgrid="false"
     inkscape:zoom="6.1906809"
     inkscape:cx="56.455825"
     inkscape:cy="59.201888"
     inkscape:window-width="1920"
     inkscape:window-height="1009"
     inkscape:window-x="0"
     inkscape:window-y="0"
     inkscape:window-maximized="1"
     inkscape:current-layer="layer1" /><defs
     id="defs2"><inkscape:path-effect
       effect="construct_grid"
       id="path-effect3499"
       is_visible="true"
       lpeversion="1"
       nr_x="12"
       nr_y="12" /></defs><g
     inkscape:label="Layer 1"
     inkscape:groupmode="layer"
     id="layer1"><rect
       style="opacity:1;fill:#ffffff;stroke:none;stroke-width:0.301126;stroke-linecap:square;stroke-linejoin:round;stroke-dasharray:none;stroke-opacity:1"
       id="rect4194"
       width="31.75"
       height="31.75"
       x="-2.7755576e-17"
       y="-2.7755576e-17" /><path
       style="opacity:1;fill:#000000;stroke:#000000;stroke-width:0.256646;stroke-linecap:square;stroke-linejoin:round;stroke-dasharray:none;stroke-opacity:1"
       id="rect2719"
       width="2.6428173"
       height="2.6314962"
       x="29.078224"
       y="0.0072394973"
       ry="0"
       inkscape:path-effect="#path-effect3499"
       d="M 31.721041,0.0072395 H 0.00723433 M 31.721041,2.6387357 H 0.00723433 M 31.721041,5.2702319 H 0.00723433 M 31.721041,7.9017281 H 0.00723433 M 31.721041,10.533224 H 0.00723433 M 31.721041,13.16472 H 0.00723433 M 31.721041,15.796217 H 0.00723433 M 31.721041,18.427713 H 0.00723433 M 31.721041,21.059209 H 0.00723433 M 31.721041,23.690705 H 0.00723433 M 31.721041,26.322201 H 0.00723433 M 31.721041,28.953698 H 0.00723433 M 31.721041,31.585194 H 0.00723433 M 31.721041,0.0072395 V 31.585194 M 29.078224,0.0072395 V 31.585194 M 26.435407,0.0072395 V 31.585194 M 23.79259,0.0072395 V 31.585194 M 21.149772,0.0072395 V 31.585194 M 18.506955,0.0072395 V 31.585194 M 15.864138,0.0072395 V 31.585194 M 13.221321,0.0072395 V 31.585194 M 10.578503,0.0072395 V 31.585194 M 7.9356861,0.0072395 V 31.585194 M 5.2928689,0.0072395 V 31.585194 M 2.6500516,0.0072395 V 31.585194 M 0.00723433,0.0072395 V 31.585194"
       sodipodi:type="rect" /><rect
       style="fill:#000000;stroke:#000000;stroke-width:0.247422;stroke-linecap:square;stroke-linejoin:round;stroke-dasharray:none;stroke-opacity:1"
       id="rect3588-0-2-0"
       width="2.4750624"
       height="2.2795649"
       x="-10.487241"
       y="2.7889895"
       transform="rotate(-90)" /><rect
       style="fill:#000000;stroke:#000000;stroke-width:0.247422;stroke-linecap:square;stroke-linejoin:round;stroke-dasharray:none;stroke-opacity:1"
       id="rect3588-0-2-0-1"
       width="2.4750624"
       height="2.2795649"
       x="-5.1479802"
       y="2.8033886"
       transform="rotate(-90)" /><rect
       style="fill:#000000;stroke:#000000;stroke-width:0.247422;stroke-linecap:square;stroke-linejoin:round;stroke-dasharray:none;stroke-opacity:1"
       id="rect3588-0-2-0-3"
       width="2.4750624"
       height="2.2795649"
       x="-10.516343"
       y="26.665571"
       transform="rotate(-90)" /><rect
       style="fill:#000000;stroke:#000000;stroke-width:0.247422;stroke-linecap:square;stroke-linejoin:round;stroke-dasharray:none;stroke-opacity:1"
       id="rect3588-0-2-0-1-6"
       width="2.4750624"
       height="2.2795649"
       x="-5.1770821"
       y="26.67997"
       transform="rotate(-90)" /><rect
       style="fill:#000000;stroke:#000000;stroke-width:0.247422;stroke-linecap:square;stroke-linejoin:round;stroke-dasharray:none;stroke-opacity:1"
       id="rect3588-0-2-0-3-7"
       width="2.4750624"
       height="2.2795649"
       x="-28.897272"
       y="26.660563"
       transform="rotate(-90)" /><rect
       style="fill:#000000;stroke:#000000;stroke-width:0.247422;stroke-linecap:square;stroke-linejoin:round;stroke-dasharray:none;stroke-opacity:1"
       id="rect3588-0-2-0-1-6-5"
       width="2.4750624"
       height="2.2795649"
       x="-23.558012"
       y="26.674961"
       transform="rotate(-90)" /><rect
       style="fill:#000000;stroke:#000000;stroke-width:0.247422;stroke-linecap:square;stroke-linejoin:round;stroke-dasharray:none;stroke-opacity:1"
       id="rect3588-0-2-0-3-7-3"
       width="2.4750624"
       height="2.2795649"
       x="-28.902782"
       y="2.7809963"
       transform="rotate(-90)" /><rect
       style="fill:#000000;stroke:#000000;stroke-width:0.247422;stroke-linecap:square;stroke-linejoin:round;stroke-dasharray:none;stroke-opacity:1"
       id="rect3588-0-2-0-1-6-5-5"
       width="2.4750624"
       height="2.2795649"
       x="-23.563522"
       y="2.7953949"
       transform="rotate(-90)" /></g></svg>
