<?xml version="1.0" encoding="UTF-8" standalone="no"?>
<svg
   width="60"
   height="60"
   version="1.1"
   id="svg4"
   xmlns="http://www.w3.org/2000/svg"
   xmlns:svg="http://www.w3.org/2000/svg">
  <defs
     id="defs8" />
  <path
     class="shapebg-fill"
     d="M 30,55 55,30 H 40 V 5 H 20 V 30 H 5 Z"
     id="path125" />
</svg>
