<?xml version="1.0" encoding="UTF-8" standalone="no"?>
<svg
   width="60"
   height="60"
   version="1.1"
   id="svg4"
   xmlns="http://www.w3.org/2000/svg"
   xmlns:svg="http://www.w3.org/2000/svg">
  <defs
     id="defs8" />
  <path
     class="shapebg-fill"
     d="M 55,30 30,5 V 20 H 5 v 20 h 25 v 15 z"
     id="path125" />
</svg>
