<?xml version="1.0" encoding="UTF-8" standalone="no"?>
<svg
   width="60"
   height="60"
   version="1.1"
   id="svg4"
   xmlns="http://www.w3.org/2000/svg"
   xmlns:svg="http://www.w3.org/2000/svg">
  <defs
     id="defs8" />
  <path
      class="shapebg-fill"
      d="m 29.920339,5.0063824 q 3.544912,6.0144006 8.722873,12.9050716 5.97457,7.966094 9.638973,12.068632 -2.947455,3.106777 -9.638973,12.028802 -5.416944,7.249145 -8.683042,12.984732 -1.075423,-2.071184 -2.947455,-4.819486 -3.226268,-4.779656 -8.005924,-11.112701 -1.035593,-1.394066 -7.288976,-9.081347 4.022877,-4.580504 10.355922,-13.064394 4.699995,-6.293214 7.846602,-11.9093096 z"
      id="path14804" />
</svg>
