<?xml version="1.0" encoding="UTF-8" standalone="no"?>
<svg
   width="60"
   height="60"
   version="1.1"
   id="svg4"
   xmlns="http://www.w3.org/2000/svg"
   xmlns:svg="http://www.w3.org/2000/svg">
  <defs
     id="defs8" />
    <path
        class="shapebg-fill"
        d="M 30.07968,54.999626 Q 28.844639,50.298501 26.533917,46.194977 24.263035,42.051613 17.689428,33.366484 12.868783,26.992078 11.753262,25.278957 9.9206205,22.490154 9.0839797,20.179432 8.2871789,17.828869 8.2871789,15.438467 q 0,-4.422244 2.9481631,-7.4102472 2.948163,-2.9880029 7.290727,-2.9880029 4.382404,0 7.609447,3.107523 2.430243,2.3107221 3.944164,6.8923271 1.314721,-4.501925 3.705124,-6.8524871 3.306723,-3.1872031 7.649287,-3.1872031 4.302724,0 7.290727,2.9880029 2.988003,2.9481633 2.988003,7.0516873 0,3.585603 -1.752961,7.489927 -1.752962,3.864484 -6.772807,10.15921 -6.533766,8.246888 -9.521769,13.545613 -2.350563,4.183204 -3.585604,8.764809 z"
        id="path10660" />
</svg>
