<?xml version="1.0" encoding="UTF-8"?>
<svg xmlns="http://www.w3.org/2000/svg" width="60" height="60">
  <path
      class="shapebg-fill"
      d="m 30.081374,4.5364609 c 3.781221,0.057429 5.940569,13.7772041 8.999999,16.0000001 2.990605,2.172791 16.540797,-0.185078 17.629583,3.347525 1.113843,3.613901 -11.267163,9.907207 -12.435752,13.50378 -1.142299,3.515663 5.287407,15.67404 2.264156,17.801171 -3.092829,2.176085 -12.904059,-7.654213 -16.685717,-7.654205 -3.696584,8e-6 -13.272999,9.872167 -16.230257,7.654204 C 10.598069,52.919929 16.915402,40.551165 15.746797,36.954598 14.604482,33.438939 2.2562256,27.381892 3.451791,23.883984 4.674871,20.305576 18.390428,22.491558 21.449848,20.268748 24.440443,18.095944 26.385216,4.4803236 30.081374,4.5364609 Z" />
</svg>
